<svg width="32" height="32" viewBox="0 0 32 32" fill="none" xmlns="http://www.w3.org/2000/svg">
<g opacity="0.2">
<path d="M17.3333 28L5.33334 28C4.59696 28 4 27.403 4 26.6667L4 9.33333C4 8.59695 4.59695 8 5.33333 8L12.7811 8C13.1347 8 13.4738 8.14048 13.7239 8.39052L18.2761 12.9428C18.5262 13.1929 18.6667 13.532 18.6667 13.8856V26.6667C18.6667 27.403 18.0697 28 17.3333 28Z" stroke="white" stroke-width="2" stroke-linecap="round" stroke-linejoin="round"/>
<path d="M13.3334 8L13.3334 5.33333C13.3334 4.59695 13.9303 4 14.6667 4L22.1144 4C22.468 4 22.8072 4.14048 23.0572 4.39052L27.6095 8.94281C27.8596 9.19286 28 9.53199 28 9.88562V22.6667C28 23.403 27.4031 24 26.6667 24L18.6667 24" stroke="white" stroke-width="2" stroke-linecap="round" stroke-linejoin="round"/>
<path d="M18.6667 14.6667L13.3333 14.6667C12.597 14.6667 12 14.0697 12 13.3333L12 8" stroke="white" stroke-width="2" stroke-linecap="round" stroke-linejoin="round"/>
<path d="M28 10.6667L22.6667 10.6667C21.9303 10.6667 21.3334 10.0697 21.3334 9.33333L21.3334 4" stroke="white" stroke-width="2" stroke-linecap="round" stroke-linejoin="round"/>
</g>
</svg>
