<svg width="25" height="24" viewBox="0 0 25 24" fill="none" xmlns="http://www.w3.org/2000/svg">
<path d="M7.125 20C7.125 18.3431 9.36358 17 12.125 17C14.8864 17 17.125 18.3431 17.125 20" stroke="#00B5FF" stroke-width="1.5" stroke-linecap="round" stroke-linejoin="round"/>
<path d="M18.125 14.2495C19.8909 14.7124 21.125 15.7697 21.125 16.9999" stroke="#00B5FF" stroke-width="1.5" stroke-linecap="round" stroke-linejoin="round"/>
<path d="M6.125 14.2495C4.3591 14.7124 3.125 15.7697 3.125 16.9999" stroke="#00B5FF" stroke-width="1.5" stroke-linecap="round" stroke-linejoin="round"/>
<path d="M12.125 14C13.7819 14 15.125 12.6569 15.125 11C15.125 9.34315 13.7819 8 12.125 8C10.4681 8 9.125 9.34315 9.125 11C9.125 12.6569 10.4681 14 12.125 14Z" stroke="#00B5FF" stroke-width="1.5" stroke-linecap="round" stroke-linejoin="round"/>
<path d="M18.125 10.2361C18.7387 9.68679 19.125 8.8885 19.125 8C19.125 6.34315 17.7819 5 16.125 5C15.3566 5 14.6558 5.28885 14.125 5.76389" stroke="#00B5FF" stroke-width="1.5" stroke-linecap="round" stroke-linejoin="round"/>
<path d="M6.125 10.2361C5.51125 9.68679 5.125 8.8885 5.125 8C5.125 6.34315 6.46815 5 8.125 5C8.89335 5 9.59424 5.28885 10.125 5.76389" stroke="#00B5FF" stroke-width="1.5" stroke-linecap="round" stroke-linejoin="round"/>
</svg>
